Accessing poverty and inequality data from the World Bank in R
…
You can loop the request to get multiple poverty lines, this is just one way to do it, using map_dfr() from the {purrr} package:

povlines <- c(1.9, 2.15, 3.2, 5.5)
NGA_estimates <- map_dfr(
  .x = povlines, 
  .f = ~get_stats(country = "NGA", povline = .x)) |>
  select(c(country_code, year, poverty_line, headcount, mean))

NGA_estimates

# A tibble: 32 × 5
   country_code  year poverty_line headcount  mean
   <chr>        <dbl>        <dbl>     <dbl> <dbl>
 1 NGA           1985         1.9      0.413  2.90
 2 NGA           1992         1.9      0.471  2.86
 3 NGA           1996         1.9      0.528  2.92
 4 NGA           2003         1.9      0.413  2.92
 5 NGA           2010         1.9      0.278  3.50
 6 NGA           2012         1.9      0.268  3.55
 7 NGA           2015         1.9      0.255  3.68
 8 NGA           2018         1.9      0.244  3.66
 9 NGA           1985         2.15     0.478  2.90
10 NGA           1992         2.15     0.524  2.86
# ℹ 22 more rows
…
4.4 Comparability (Income vs Consumption)

Metrics are calculated using either income or consumption data. The comparable_spell variable indicates whether the data is comparable across years within a country. welfare_type helps you identify whether the data is based on income or consumption.

CHN_estimates <- get_stats(country="CHN") |>
filter(reporting_level=="national") |>
select(year, headcount, comparable_spell, welfare_type)

CHN_estimates

# A tibble: 22 × 4
    year headcount comparable_spell welfare_type
   <dbl>     <dbl> <chr>            <chr>       
 1  1981     0.918 1981 - 1987      income      
 2  1984     0.812 1981 - 1987      income      
 3  1987     0.674 1981 - 1987      income      
 4  1990     0.720 1990 - 2012      consumption 
 5  1993     0.656 1990 - 2012      consumption 
 6  1996     0.482 1990 - 2012      consumption 
 7  1999     0.461 1990 - 2012      consumption 
 8  2002     0.369 1990 - 2012      consumption 
 9  2005     0.223 1990 - 2012      consumption 
10  2008     0.173 1990 - 2012      consumption 
# ℹ 12 more rows
…
