Accessing poverty and inequality data from the World Bank in R
…
4.1 Get Population Data and Country Reference Table

You can use the function get_aux() to access population data for each country in PIP. We only need national level estimates, so we filter the data accordingly (and we keep Argentina, which is calculated based on urban population).

pop_tables <- 
  get_aux("pop") |>
  filter(data_level == "national" | country_code == "ARG") |>
  rename(pop = value, reporting_level = data_level) |>
  filter(year %in% c(1990:2022)) |>
  mutate(year = as.numeric(as.character(year)))

pop_tables

# A tibble: 7,260 × 4
   country_code reporting_level  year   pop
   <chr>        <chr>           <dbl> <dbl>
 1 ABW          national         1990 65712
 2 ABW          national         1991 67864
 3 ABW          national         1992 70192
 4 ABW          national         1993 72360
 5 ABW          national         1994 74710
 6 ABW          national         1995 77050
 7 ABW          national         1996 79417
 8 ABW          national         1997 81858
 9 ABW          national         1998 84355
10 ABW          national         1999 86867
# ℹ 7,250 more rows

Data are now identified uniquely by country_code, year, and reporting_level.

We get additional country-level reference table to match country codes with regions.

country_tables <- get_aux("country_list") |>
  select(region_code, region, country_code, country_name, 
         africa_split, africa_split_code) |>
  rename(region_name = region)

country_tables |> 
  filter(region_code == "SSA")

# A tibble: 48 × 6
   region_code region_name        country_code country_name         africa_split
   <chr>       <chr>              <chr>        <chr>                <chr>       
 1 SSA         Sub-Saharan Africa AGO          Angola               Eastern and…
 2 SSA         Sub-Saharan Africa BDI          Burundi              Eastern and…
 3 SSA         Sub-Saharan Africa BEN          Benin                Western and…
 4 SSA         Sub-Saharan Africa BFA          Burkina Faso         Western and…
 5 SSA         Sub-Saharan Africa BWA          Botswana             Eastern and…
 6 SSA         Sub-Saharan Africa CAF          Central African Rep… Western and…
 7 SSA         Sub-Saharan Africa CIV          Cote d'Ivoire        Western and…
 8 SSA         Sub-Saharan Africa CMR          Cameroon             Western and…
 9 SSA         Sub-Saharan Africa COD          Congo, Dem. Rep.     Eastern and…
10 SSA         Sub-Saharan Africa COG          Congo, Rep.          Western and…
# ℹ 38 more rows
# ℹ 1 more variable: africa_split_code <chr>
…
harmonized_npl_unnested <-
harmonized_npl_unnested |>
  # Filter and prepare final dataset
  filter(pip_data.year == year, 
         pip_data.welfare_type == "consumption") |>
  select(
    country_code, pip_data.region_code, pip_data.year, pip_data.welfare_time, pip_data.headcount, 
    pip_data.poverty_line, pip_data.reporting_level, pip_data.welfare_type
  ) |> 
  rename(harm_npl = pip_data.poverty_line) |> 
  mutate(harm_npl = as.numeric(harm_npl))

harmonized_npl_unnested

# A tibble: 28 × 8
   country_code pip_data.region_code pip_data.year pip_data.welfare_time
   <chr>        <chr>                        <dbl>                 <dbl>
 1 AZE          ECA                           2001                 2001 
 2 BDI          SSA                           2013                 2014.
 3 BEN          SSA                           2015                 2015 
 4 BFA          SSA                           2014                 2014 
 5 CAF          SSA                           2008                 2008 
 6 COD          SSA                           2012                 2012.
 7 COM          SSA                           2004                 2004 
 8 ETH          SSA                           2015                 2016.
 9 GIN          SSA                           2012                 2012 
10 GMB          SSA                           2015                 2015.
# ℹ 18 more rows
# ℹ 4 more variables: pip_data.headcount <dbl>, harm_npl <dbl>,
#   pip_data.reporting_level <chr>, pip_data.welfare_type <chr>
…
